before_normalization 1.1337186098098755 0.7961094379425049 0.4912174940109253 0.5902858376502991 0.22022134065628052 0.08574158698320389 0.36396342515945435 0.8262301087379456
before_matching 0.2687450349330902 0.21059556305408478 0.06263619661331177 0.017207710072398186 0.04940156266093254 0.000579174084123224 0.01984679326415062 0.00023459846852347255
after_matching 0.21767623722553253 0.23455950617790222 0.05973632261157036 0.01595424860715866 0.04673703387379646 0.0005804305546917021 0.020021604374051094 0.00023459846852347255
layer_names 0.weight 0.bias 3.weight 3.bias 7.weight 7.bias 9.weight 9.bias