before_normalization 0.6494988799095154 0.4687725901603699 0.1585763394832611 0.21971102058887482 0.057671982795000076 0.04106574505567551 0.20574155449867249 0.06751347333192825
before_matching 0.2817364037036896 0.2544516623020172 0.06283166259527206 0.03238978981971741 0.05001912638545036 0.005753109697252512 0.06345964223146439 0.002602203516289592
after_matching 0.2817364037036896 0.2544516623020172 0.06283166259527206 0.03238978981971741 0.05001912638545036 0.005753109697252512 0.06345964223146439 0.002602203516289592
layer_names 0.weight 0.bias 3.weight 3.bias 7.weight 7.bias 9.weight 9.bias
layer_numels 500 20 25000 50 400000 500 5000 10