before_normalization 0.3180164098739624 2.9777488708496094 0.21223331987857819 0.4516170024871826 0.2649858593940735 2.1139936447143555
before_matching 0.024746155366301537 0.1811266839504242 0.05333305522799492 0.09948767721652985 0.053022392094135284 0.12547072768211365
after_matching 0.3165202736854553 2.9559860229492188 0.21751420199871063 0.4473552703857422 0.2730948328971863 2.226428747177124
layer_names 0.weight 0.bias 2.weight 2.bias 4.weight 4.bias
layer_numels 1572864 512 262144 512 5120 10