before_normalization 0.1323043704032898 0.04068224877119064 0.11927881091833115 0.1350163072347641 0.43076154589653015 0.3462596833705902
before_matching 0.04884620010852814 0.01591622084379196 0.06031481549143791 0.03803311660885811 0.05715549364686012 0.021768050268292427
after_matching 0.11864820122718811 0.03822041675448418 0.11623385548591614 0.11343502998352051 0.4216049015522003 0.41834747791290283
layer_names 0.weight 0.bias 2.weight 2.bias 4.weight 4.bias
layer_numels 401408 512 262144 512 5120 10