before_normalization 0.6819711923599243 0.6056495904922485 0.1614055037498474 0.1945432424545288 0.051606856286525726 0.04391546547412872 0.21044254302978516 0.06233085319399834
before_matching 0.27777913212776184 0.33645814657211304 0.06254947930574417 0.026117557659745216 0.04988158121705055 0.005975404754281044 0.06280641257762909 0.0023460735101252794
after_matching 0.416830450296402 0.399179607629776 0.11518760025501251 0.14486736059188843 0.047513414174318314 0.0316343791782856 0.14171281456947327 0.3358602523803711
layer_names 0.weight 0.bias 3.weight 3.bias 7.weight 7.bias 9.weight 9.bias
layer_numels 500 20 25000 50 400000 500 5000 10