before_normalization 0.5175549983978271 2.1295456886291504 0.30173003673553467 0.22918950021266937 0.15961802005767822 0.051595598459243774 0.22302524745464325 0.31115150451660156
before_matching 0.29292625188827515 1.0320796966552734 0.06300625205039978 0.017907770350575447 0.05006273090839386 0.022380083799362183 0.06384965777397156 0.046409089118242264
after_matching 0.29292625188827515 1.0320796966552734 0.06300625205039978 0.017907770350575447 0.05006273090839386 0.022380083799362183 0.06384965777397156 0.046409089118242264
layer_names 0.weight 0.bias 3.weight 3.bias 7.weight 7.bias 9.weight 9.bias
layer_numels 500 20 25000 50 400000 500 5000 10