before_matching 0.032242003828287125 0.20089849829673767 0.06655579060316086 0.14550206065177917 0.1983833611011505 1.2419495582580566
after_matching 0.030817877501249313 0.19196149706840515 0.06473269313573837 0.1266525387763977 0.17518967390060425 1.2419495582580566
layer_names 0.weight 0.bias 2.weight 2.bias 4.weight 4.bias
layer_numels 1572864 512 262144 512 5120 10