before_matching 0.03372303396463394 0.023134779185056686 0.036189645528793335 0.04026423767209053 0.15519671142101288 0.13318783044815063
after_matching 0.027532635256648064 0.021979836747050285 0.03174843639135361 0.03577988222241402 0.0899498388171196 0.13318783044815063
layer_names 0.weight 0.bias 2.weight 2.bias 4.weight 4.bias
layer_numels 401408 512 262144 512 5120 10