before_normalization 0.036859892308712006 0.030849123373627663 0.04272481054067612 0.03752623870968819 0.15748143196105957 0.03366889804601669
before_matching 0.05047966167330742 0.04326579347252846 0.06245199218392372 0.07469502836465836 0.062475744634866714 0.023975634947419167
after_matching 0.05047966167330742 0.04326579347252846 0.06245199218392372 0.07469502836465836 0.062475744634866714 0.023975634947419167
layer_names 0.weight 0.bias 2.weight 2.bias 4.weight 4.bias
layer_numels 401408 512 262144 512 5120 10