before_matching 0.12984874844551086 0.04896559566259384 0.12204568833112717 0.11556177586317062 0.4676989018917084 0.3873841166496277
after_matching 0.1216413676738739 0.045132216066122055 0.11694271862506866 0.11043760925531387 0.4458587169647217 0.3873841166496277
layer_names 0.weight 0.bias 2.weight 2.bias 4.weight 4.bias
layer_numels 401408 512 262144 512 5120 10