before_normalization 0.04179356247186661 0.15900151431560516 0.08545207977294922 0.2169129103422165 0.24630355834960938 0.04027301445603371
before_matching 0.025188982486724854 0.0901404470205307 0.06218366697430611 0.08815669268369675 0.0627719908952713 0.004156837239861488
after_matching 0.025188982486724854 0.0901404470205307 0.06218366697430611 0.08815669268369675 0.0627719908952713 0.004156837239861488
layer_names 0.weight 0.bias 2.weight 2.bias 4.weight 4.bias
layer_numels 1572864 512 262144 512 5120 10