before_normalization 0.2907552719116211 0.35666903853416443 0.08343375474214554 0.13811513781547546 0.029597755521535873 0.03221609815955162 0.16103723645210266 0.03001324273645878
before_matching 0.15729780495166779 0.2195279449224472 0.06321439892053604 0.052092619240283966 0.03998948633670807 0.016541320830583572 0.06302177160978317 0.0057035041972994804
after_matching 0.18763859570026398 0.301454097032547 0.06627771258354187 0.09580457955598831 0.033607497811317444 0.02405085600912571 0.11484045535326004 0.11711801588535309
layer_names 0.weight 0.bias 3.weight 3.bias 7.weight 7.bias 9.weight 9.bias
layer_numels 1500 20 25000 50 625000 500 5000 10