before_normalization 0.02977282740175724 0.02123996801674366 0.0320548377931118 0.03563488647341728 0.12698452174663544 0.11001879721879959
before_matching 0.04431748390197754 0.030968183651566505 0.054957613348960876 0.10129278153181076 0.05077088624238968 0.1383349448442459
after_matching 0.04431748390197754 0.030968183651566505 0.054957613348960876 0.10129278153181076 0.05077088624238968 0.1383349448442459
layer_names 0.weight 0.bias 2.weight 2.bias 4.weight 4.bias
layer_numels 401408 512 262144 512 5120 10