before_matching 0.02977282740175724 0.02123996801674366 0.0320548377931118 0.03563488647341728 0.12698452174663544 0.11001879721879959
after_matching 0.027284426614642143 0.023221319541335106 0.03174685314297676 0.03372027352452278 0.08949564397335052 0.11001879721879959
layer_names 0.weight 0.bias 2.weight 2.bias 4.weight 4.bias
layer_numels 401408 512 262144 512 5120 10