before_normalization 0.6654672622680664 0.5726851224899292 0.15725652873516083 0.2110428810119629 0.05702803283929825 0.03981497511267662 0.20225587487220764 0.059527017176151276
before_matching 0.28308072686195374 0.32613101601600647 0.06290408223867416 0.032302603125572205 0.04988138750195503 0.0057583400048315525 0.02004188299179077 0.0007086136611178517
after_matching 0.21980637311935425 0.13004694879055023 0.05878232419490814 0.028766771778464317 0.04717312753200531 0.005668515805155039 0.018630612641572952 0.0007086136611178517
layer_names 0.weight 0.bias 3.weight 3.bias 7.weight 7.bias 9.weight 9.bias