before_normalization 0.030028384178876877 0.015179240144789219 0.028246840462088585 0.04035048559308052 0.15471969544887543 0.02359100989997387
before_matching 0.05008784681558609 0.026709530502557755 0.062013350427150726 0.12856757640838623 0.06201215833425522 0.024701673537492752
after_matching 0.05008784681558609 0.026709530502557755 0.062013350427150726 0.12856757640838623 0.06201215833425522 0.024701673537492752
layer_names 0.weight 0.bias 2.weight 2.bias 4.weight 4.bias
layer_numels 401408 512 262144 512 5120 10