before_normalization 0.28425362706184387 0.7056139707565308 0.09257270395755768 0.23728187382221222 0.03094254992902279 0.04681377857923508 0.1460580676794052 0.3963139057159424
before_matching 0.14066776633262634 0.4110480546951294 0.058309588581323624 0.056271687150001526 0.03727356716990471 0.013606461696326733 0.05295799300074577 0.01760135591030121
after_matching 0.1825077384710312 0.4195363223552704 0.06598705053329468 0.09478850662708282 0.03356188163161278 0.021772509440779686 0.11266905814409256 0.09825367480516434
layer_names 0.weight 0.bias 3.weight 3.bias 7.weight 7.bias 9.weight 9.bias
layer_numels 1500 20 25000 50 625000 500 5000 10