before_matching 0.7068213820457458 0.5626941919326782 0.44595804810523987 0.15962861478328705 0.2286108434200287 0.04189882427453995 0.2773909270763397 0.35258641839027405
after_matching 0.577509343624115 0.5523125529289246 0.42365923523902893 0.1726083904504776 0.21654845774173737 0.04177544638514519 0.27773261070251465 0.35258641839027405
layer_names 0.weight 0.bias 3.weight 3.bias 7.weight 7.bias 9.weight 9.bias
layer_numels 500 20 25000 50 400000 500 5000 10