before_normalization 0.9272459745407104 2.1948750019073486 0.3686215579509735 0.8728362321853638 0.16231785714626312 0.08563593775033951 0.3006910979747772 1.2906750440597534
before_matching 0.266765832901001 0.47344186902046204 0.06272086501121521 0.029361918568611145 0.04978503659367561 0.0040864162147045135 0.06411630660295486 0.004420869518071413
after_matching 0.266765832901001 0.47344186902046204 0.06272086501121521 0.029361918568611145 0.04978503659367561 0.0040864162147045135 0.06411630660295486 0.004420869518071413
layer_names 0.weight 0.bias 3.weight 3.bias 7.weight 7.bias 9.weight 9.bias
layer_numels 500 20 25000 50 400000 500 5000 10