before_normalization 0.9907431602478027 2.624953508377075 0.3742164075374603 1.0036242008209229 0.1632119119167328 0.09260935336351395 0.2983620762825012 1.2889914512634277
before_matching 0.2661428451538086 0.5365197658538818 0.062107618898153305 0.03044012002646923 0.049036528915166855 0.004600582644343376 0.060347605496644974 0.012642410583794117
after_matching 0.2661428451538086 0.5365197658538818 0.062107618898153305 0.03044012002646923 0.049036528915166855 0.004600582644343376 0.060347605496644974 0.012642410583794117
layer_names 0.weight 0.bias 3.weight 3.bias 7.weight 7.bias 9.weight 9.bias
layer_numels 500 20 25000 50 400000 500 5000 10