before_normalization 0.08606051653623581 0.03788303956389427 0.09713847190141678 0.08029256016016006 0.38933253288269043 0.18562141060829163
before_matching 0.050326988101005554 0.023593667894601822 0.0630791038274765 0.10508108139038086 0.06164021044969559 0.16036084294319153
after_matching 0.08365310728549957 0.038132913410663605 0.10013808310031891 0.1344458907842636 0.3694973587989807 0.19889672100543976
layer_names 0.weight 0.bias 2.weight 2.bias 4.weight 4.bias
layer_numels 401408 512 262144 512 5120 10