before_normalization 0.6350871324539185 0.48236843943595886 0.13915058970451355 0.20407354831695557 0.049011941999197006 0.035527586936950684 0.19742074608802795 0.0590120367705822
before_matching 0.2835078239440918 0.26784980297088623 0.06307383626699448 0.03489280864596367 0.04993828386068344 0.007909650914371014 0.06333380937576294 0.009872781112790108
after_matching 0.2835078239440918 0.26784980297088623 0.06307383626699448 0.03489280864596367 0.04993828386068344 0.007909650914371014 0.06333380937576294 0.009872781112790108
layer_names 0.weight 0.bias 3.weight 3.bias 7.weight 7.bias 9.weight 9.bias