before_normalization 0.8025097846984863 2.7011265754699707 0.34935012459754944 0.9649346470832825 0.15792742371559143 0.07717360556125641 0.27060213685035706 0.8492711186408997
before_matching 0.2356819063425064 0.6690158843994141 0.06074608117341995 0.03710363432765007 0.04787467420101166 0.006913837511092424 0.05712994933128357 0.013690990395843983
after_matching 0.2356819063425064 0.6690158843994141 0.06074608117341995 0.03710363432765007 0.04787467420101166 0.006913837511092424 0.05712994933128357 0.013690990395843983
layer_names 0.weight 0.bias 3.weight 3.bias 7.weight 7.bias 9.weight 9.bias
layer_numels 500 20 25000 50 400000 500 5000 10