before_normalization 0.6654672622680664 0.5726851224899292 0.15725652873516083 0.2110428810119629 0.05702803283929825 0.03981497511267662 0.20225587487220764 0.059527017176151276
before_matching 0.28308072686195374 0.32613101601600647 0.06290408223867416 0.032302603125572205 0.04988138750195503 0.0057583400048315525 0.0633779987692833 0.0022408333607017994
after_matching 0.42881348729133606 0.34124836325645447 0.11576474457979202 0.1328510344028473 0.05087672546505928 0.028834141790866852 0.14481566846370697 0.1685463935136795
layer_names 0.weight 0.bias 3.weight 3.bias 7.weight 7.bias 9.weight 9.bias
layer_numels 500 20 25000 50 400000 500 5000 10