before_matching 0.4444911777973175 2.4768638610839844 0.3026857376098633 0.5889100432395935 0.314274400472641 1.6932809352874756
after_matching 0.3982900381088257 1.5131139755249023 0.28018394112586975 0.31682488322257996 0.30694636702537537 1.6932809352874756
layer_names 0.weight 0.bias 2.weight 2.bias 4.weight 4.bias
layer_numels 1572864 512 262144 512 5120 10