before_normalization 0.6630943417549133 0.6372461915016174 0.16074725985527039 0.20209132134914398 0.05184397101402283 0.04129895940423012 0.2106054425239563 0.059709057211875916
before_matching 0.2727418839931488 0.37378811836242676 0.06269323080778122 0.030170055106282234 0.04982135072350502 0.005537308752536774 0.06286810338497162 0.0021135476417839527
after_matching 0.424943208694458 0.402681440114975 0.11599679291248322 0.14052464067935944 0.047352004796266556 0.030563630163669586 0.13818810880184174 0.3110640347003937
layer_names 0.weight 0.bias 3.weight 3.bias 7.weight 7.bias 9.weight 9.bias
layer_numels 500 20 25000 50 400000 500 5000 10