before_normalization 0.3061555027961731 0.1814621537923813 0.0624360553920269 0.03536983206868172 0.03317330405116081 0.02814537286758423 0.10791533440351486 0.038579367101192474
before_matching 0.27930694818496704 0.19321058690547943 0.0632563978433609 0.03563671559095383 0.049970585852861404 0.03532113507390022 0.0626726821064949 0.026231681928038597
after_matching 0.21060118079185486 0.13915731012821198 0.05593980848789215 0.03384024649858475 0.04012105613946915 0.03120502457022667 0.07240219414234161 0.027773765847086906
layer_names 0.weight 0.bias 3.weight 3.bias 7.weight 7.bias 9.weight 9.bias
layer_numels 500 20 25000 50 400000 500 5000 10