before_matching 0.2907552719116211 0.35666903853416443 0.08343375474214554 0.13811513781547546 0.029597755521535873 0.03221609815955162 0.16103723645210266 0.03001324273645878
after_matching 0.21553581953048706 0.3609122335910797 0.07405157387256622 0.12281487137079239 0.028226785361766815 0.027729671448469162 0.14140519499778748 0.03001324273645878
layer_names 0.weight 0.bias 3.weight 3.bias 7.weight 7.bias 9.weight 9.bias
layer_numels 1500 20 25000 50 625000 500 5000 10