before_normalization 1.3897383213043213 2.2298147678375244 0.6779128313064575 2.1192407608032227 0.27226269245147705 0.10532268136739731 0.474077045917511 1.2317122220993042
before_matching 0.15972900390625 0.34776490926742554 0.062398672103881836 0.023550566285848618 0.03922858089208603 0.00013030892296228558 0.06263630837202072 0.00024194373690988868
after_matching 0.9768268465995789 6.992981433868408 0.4841395318508148 2.168494462966919 0.19653725624084473 0.07975741475820541 0.34145107865333557 2.799722909927368
layer_names 0.weight 0.bias 3.weight 3.bias 7.weight 7.bias 9.weight 9.bias
layer_numels 1500 20 25000 50 625000 500 5000 10