before_normalization 0.5705091953277588 0.2816038131713867 0.1163225993514061 0.15055625140666962 0.03798561170697212 0.028066787868738174 0.18647782504558563 0.04422663524746895
before_matching 0.2808818221092224 0.1812933087348938 0.0631718784570694 0.03505836799740791 0.050038404762744904 0.008885032497346401 0.019856343045830727 0.0013361318269744515
after_matching 0.19104452431201935 0.1739273965358734 0.05653435364365578 0.022275712341070175 0.04664595425128937 0.008125033229589462 0.0161373820155859 0.0013361318269744515
layer_names 0.weight 0.bias 3.weight 3.bias 7.weight 7.bias 9.weight 9.bias