before_matching 0.12997694313526154 0.05034906789660454 0.12159174680709839 0.11693421751260757 0.4606475532054901 0.4056089520454407
after_matching 0.12195400148630142 0.04685743898153305 0.11652243137359619 0.11294742673635483 0.4440862238407135 0.4056089520454407
layer_names 0.weight 0.bias 2.weight 2.bias 4.weight 4.bias
layer_numels 401408 512 262144 512 5120 10