before_normalization 0.9381676316261292 2.3753650188446045 0.35906800627708435 0.8708354234695435 0.16010913252830505 0.08836116641759872 0.2879663109779358 0.8436455130577087
before_matching 0.285573273897171 0.5513153672218323 0.06341864168643951 0.030755924060940742 0.049911826848983765 0.006348779425024986 0.019671287387609482 0.004272259306162596
after_matching 0.22552722692489624 0.5377762913703918 0.05985189974308014 0.029762370511889458 0.04744016379117966 0.006368723232299089 0.019716624170541763 0.004272259306162596
layer_names 0.weight 0.bias 3.weight 3.bias 7.weight 7.bias 9.weight 9.bias