before_normalization 0.08674547076225281 0.04315043240785599 0.09865854680538177 0.07552394270896912 0.39260679483413696 0.14545151591300964
before_matching 0.05050811916589737 0.03271651268005371 0.06273900717496872 0.06073679402470589 0.06275120377540588 0.028733666986227036
after_matching 0.05050811916589737 0.03271651268005371 0.06273900717496872 0.06073679402470589 0.06275120377540588 0.028733666986227036
layer_names 0.weight 0.bias 2.weight 2.bias 4.weight 4.bias
layer_numels 401408 512 262144 512 5120 10