before_normalization 1.1985669136047363 0.9946452975273132 0.4904429614543915 0.6514597535133362 0.22013038396835327 0.0826692208647728 0.37134024500846863 0.8492165207862854
before_matching 0.2875923812389374 0.24512353539466858 0.0628139078617096 0.019900312647223473 0.0494379997253418 0.0005634384579025209 0.06334823369979858 0.0007620294345542789
after_matching 0.2875923812389374 0.24512353539466858 0.0628139078617096 0.019900312647223473 0.0494379997253418 0.0005634384579025209 0.06334823369979858 0.0007620294345542789
layer_names 0.weight 0.bias 3.weight 3.bias 7.weight 7.bias 9.weight 9.bias
layer_numels 500 20 25000 50 400000 500 5000 10