before_normalization 0.931705117225647 2.484056234359741 0.36130255460739136 0.90797358751297 0.15951192378997803 0.08443162590265274 0.2956351041793823 1.3019458055496216
before_matching 0.2782624065876007 0.5997717380523682 0.06303239613771439 0.03387157618999481 0.04991820454597473 0.007299319840967655 0.020336436107754707 0.004859365988522768
after_matching 0.22507324814796448 0.5985828042030334 0.05985143780708313 0.03462584689259529 0.04735478013753891 0.0073254164308309555 0.019518325105309486 0.004859365988522768
layer_names 0.weight 0.bias 3.weight 3.bias 7.weight 7.bias 9.weight 9.bias