before_matching 1.0413188934326172 8.64939022064209 0.48981931805610657 2.106478691101074 0.1957416832447052 0.0843815952539444 0.3568551242351532 2.580683469772339
after_matching 1.0036388635635376 8.610675811767578 0.48350659012794495 2.033853530883789 0.1940145492553711 0.08377563208341599 0.35794615745544434 2.580683469772339
layer_names 0.weight 0.bias 3.weight 3.bias 7.weight 7.bias 9.weight 9.bias
layer_numels 1500 20 25000 50 625000 500 5000 10