before_normalization 0.5873433351516724 0.06993327289819717 0.49475422501564026 0.8295257091522217 0.1315460056066513 0.015522784553468227 0.34515881538391113 0.2061886042356491 0.11207924783229828 0.01472200732678175 0.23924954235553741 0.19214719533920288 0.08522729575634003 0.011457395739853382 0.17135600745677948 0.1481623351573944 0.06770281493663788 0.010240988805890083 0.1489383727312088 0.11407139897346497 0.04652055725455284 0.007989747449755669 0.1761675775051117 0.12789131700992584 0.04388821870088577 0.007074412889778614 0.20501446723937988 0.17551830410957336 0.026913844048976898 0.007216866128146648 0.10307570546865463 0.1557159721851349 0.014630202203989029 0.0052695800550282 0.10750526934862137 0.17280344665050507 0.012640300206840038 0.005590573884546757 0.08237963169813156 0.12607888877391815 0.011241261847317219 0.005403744522482157 0.06448390334844589 0.2107142210006714 0.01045308168977499 0.005413713399320841 0.058875299990177155 0.1682082563638687 0.01247238926589489 0.0053466921672225 0.0892844945192337 0.12539386749267578 0.002860660431906581 0.02695806883275509 0.006640997715294361 0.07714644074440002 0.09402219206094742 0.21358153223991394
before_matching 0.26926371455192566 0.045458532869815826 0.49475422501564026 0.39333927631378174 0.058493856340646744 0.0030915127135813236 0.34515881538391113 0.0683058500289917 0.058574333786964417 0.0013246237067505717 0.23924954235553741 0.030369563028216362 0.04132123664021492 0.000538242980837822 0.17135600745677948 0.022692983970046043 0.041520051658153534 0.0003077046712860465 0.1489383727312088 0.013158552348613739 0.029235905036330223 0.00016619016241747886 0.1761675775051117 0.009067387320101261 0.02938051149249077 0.00011678231385303661 0.20501446723937988 0.0050953468307852745 0.02937045879662037 0.0001497878838563338 0.10307570546865463 0.002889123046770692 0.020812606438994408 0.000176768095116131 0.10750526934862137 0.004319912753999233 0.020797312259674072 0.0003317778464406729 0.08237963169813156 0.004333898425102234 0.020761573687195778 0.0006746089202351868 0.06448390334844589 0.01649409905076027 0.020495327189564705 0.001703504822216928 0.058875299990177155 0.0334491990506649 0.020846206694841385 0.0031120646744966507 0.0892844945192337 0.2078782469034195 0.008576038293540478 0.008540675975382328 0.022019362077116966 0.1401853859424591 0.022134561091661453 0.13814176619052887
after_matching 0.37022778391838074 0.06151031330227852 0.3436528444290161 0.6292879581451416 0.10186069458723068 0.010980176739394665 0.3153640031814575 0.3452364504337311 0.08704019337892532 0.01092550065368414 0.20890608429908752 0.3049333691596985 0.06792715936899185 0.007235218305140734 0.17393602430820465 0.5202314257621765 0.05661371350288391 0.0074684759601950645 0.13809709250926971 0.4744875431060791 0.040183328092098236 0.00553993321955204 0.15447606146335602 0.5033547282218933 0.03941880539059639 0.005166590679436922 0.19267195463180542 0.4217979907989502 0.029079841449856758 0.005307289771735668 0.09661432355642319 0.24849507212638855 0.01815207302570343 0.003572771092876792 0.0892513245344162 0.19060146808624268 0.01700601540505886 0.00388179998844862 0.06785278767347336 0.12378202378749847 0.015822483226656914 0.003915197681635618 0.05169348791241646 0.1959027200937271 0.015380343422293663 0.003973850514739752 0.052669454365968704 0.14893507957458496 0.01613803394138813 0.004746215417981148 0.08435185998678207 0.14061178267002106 0.006425580475479364 0.018435005098581314 0.015519746579229832 0.12389130145311356 0.08597085624933243 0.1629469096660614
layer_names 0.weight 0.bias 1.weight 1.bias 3.weight 3.bias 4.weight 4.bias 7.weight 7.bias 8.weight 8.bias 10.weight 10.bias 11.weight 11.bias 14.weight 14.bias 15.weight 15.bias 17.weight 17.bias 18.weight 18.bias 20.weight 20.bias 21.weight 21.bias 24.weight 24.bias 25.weight 25.bias 27.weight 27.bias 28.weight 28.bias 30.weight 30.bias 31.weight 31.bias 34.weight 34.bias 35.weight 35.bias 37.weight 37.bias 38.weight 38.bias 40.weight 40.bias 41.weight 41.bias 46.weight 46.bias 48.weight 48.bias 50.weight 50.bias
layer_numels 1728 64 64 64 36864 64 64 64 73728 128 128 128 147456 128 128 128 294912 256 256 256 589824 256 256 256 589824 256 256 256 1179648 512 512 512 2359296 512 512 512 2359296 512 512 512 2359296 512 512 512 2359296 512 512 512 2359296 512 512 512 102760448 4096 16777216 4096 40960 10